1,site.title,Site Title,Site Title,"",text,1,Site
2,site.description,Site Description,Site Description,"",text,2,Site
3,site.logo,Site Logo,"","",image,3,Site
5,admin.bg_image,Admin Background Image,"","",image,5,Admin
6,admin.title,Admin Title,Voyager,"",text,1,Admin
7,admin.description,Admin Description,Welcome to Voyager. The Missing Admin for Laravel,"",text,2,Admin
8,admin.loader,Admin Loader,"","",image,3,Admin
9,admin.icon_image,Admin Icon Image,"","",image,4,Admin
4,site.google_analytics_tracking_id,Google Analytics Tracking ID,,"",text,4,Site
10,admin.google_analytics_client_id,Google Analytics Client ID (used for admin dashboard),,"",text,1,Admin
11,site.about_us_text,Text About us,"<h2 style=""box-sizing: border-box; outline: none; margin: 0px 0px 1.5rem; line-height: 1.2; font-size: 25px; padding: 0px; border: 0px; vertical-align: baseline; font-family: AvenirNextCyr; color: #1e2329; background-color: #f9f9f9;"">KAZSEEDS is a seed company dedicated to helping our customers attain whole farm profitability and sustainability.</h2>
<p style=""box-sizing: border-box; outline: none; margin: 0px 0px 1rem; padding: 0px; border: 0px; font-size: 18px; vertical-align: baseline; font-family: AvenirNextCyr; line-height: 1.2; color: #1e2329; background-color: #f9f9f9;"">By understanding your whole operation, we can help you choose the right products and help you manage them on your farm in a way that conserves resources and improves profitability.</p>",,rich_text_box,6,Site
13,site.first_advantage,First advantage,Building seed production capabilitiesin Kazakhstan,,text,7,Site
14,site.second_advantage,Second advantage,Building seed production capabilitiesin Kazakhstan,,text,8,Site
15,site.third_advantage,Third advantage,Building seed production capabilitiesin Kazakhstan,,text,9,Site
16,site.fourth_advantage,Fourth advantage,Building seed production capabilitiesin Kazakhstan,,text,10,Site
17,site.phone,Phone,+7 (727) 225-61-77,,text,11,Site
18,site.address,Address,"145 Office, 55/17 Manglik Yel, Yesil District, Nur-Sultan city, Z05T3D6, Republic of Kazakhstan",,text,12,Site
25,services-en.first_image,First Image,settings/July2020/bhFRz6nMQvqhnmk1Cav2.png,,image,18,Services_en
19,site.email,Email,info@kazseeds.kz,,text,13,Site
20,contact-en.employees_text,Employees,"<h3 style=""box-sizing: border-box; outline: none; margin: 0px 0px 1rem; line-height: 1.2; font-size: 25px; padding: 0px; border: 0px; vertical-align: baseline; font-family: AvenirNextCyr; color: #1e2329; background-color: #f9f9f9;"">Expect to see us more than once each year!</h3>
<p style=""box-sizing: border-box; outline: none; margin: 0px; padding: 0px; border: 0px; font-size: 18px; vertical-align: baseline; font-family: AvenirNextCyr; line-height: 1.722; color: #1e2329; background-color: #f9f9f9;"">We are here to do more than sell you seed. We want your operation to be profitable and sustainable. Seed is only a part of this equation. The best way to personalize our recommendations is to understand your operation. We plan to visit your farm a minimum of three times each growing season.</p>",,rich_text_box,14,Contact_en
21,contact-en.employees_image,Employees_image,settings/July2020/CzIl4Ceg7P6qMhRnPHeH.png,,image,15,Contact_en
22,services-en.service_text,How we work main Text,"In addition to seeds, however, good agronomy is paramount to improving overall productivity and the financial aspect of a farming operation. We want to sell you seed, but you will see us more often than just at sales time. We want to visit your farm during each growing season.",,text,16,Services_en
24,services-en.additional_text,How we work additional text,"<p style=""box-sizing: border-box; outline: none; margin: 0px 0px 1.5rem; padding: 0px; border: 0px; font-size: 18px; vertical-align: baseline; font-family: AvenirNextCyr; line-height: 1.722; color: #1e2329;"">We want to understand your operation so we can make personalized recommendations for hybrids and varieties and also for other important areas of management: fertility, weed control, planting population, equipment settings. Think of us as your agronomy team. We want you to succeed.</p>
<p style=""box-sizing: border-box; outline: none; margin: 0px 0px 1.5rem; padding: 0px; border: 0px; font-size: 18px; vertical-align: baseline; font-family: AvenirNextCyr; line-height: 1.722; color: #1e2329;"">A one-size-fits-all management style does not work. Every operation may have one goal&mdash;to be profitable&mdash;but the way of getting there is unique for each farm. A strictly grain operation has different needs than a livestock operation. Poultry farms have different feed requirements than beef operations, which are different from dairy farms. Dryland and irrigated farms are different. Northern farms and southern farms are different. Each farm requires different recommendations, and we will be there to provide them.</p>
<p style=""box-sizing: border-box; outline: none; margin: 0px; padding: 0px; border: 0px; font-size: 18px; vertical-align: baseline; font-family: AvenirNextCyr; line-height: 1.722; color: #1e2329;"">We are students of history. We learn from watching the past: what has worked and what can lead us down the path to future environmental sustainability. Our goal is to help you realize both short-term profitability and long-term profitability.</p>",,rich_text_box,17,Services_en
26,services-en.citation_title,Citation Title,Our Knowledge is Your Knowledge,,text,19,Services_en
28,services-en.citation_text,Citation Text,"Each year we conduct trials in a variety of farming systems that utilize different agronomic practices: no-till to full tillage, dryland and irrigated, and different crop rotations.  Additionally we screen many non-seed agronomic products each year, keeping us current with available herbicide, fungicide, insecticide, and fertility options. We know that every farm is unique.  We have over 190 years of combined experience in agriculture.  Let us use them on your farm!",,text_area,20,Services_en
29,services-en.citation_image,Citation image,settings/July2020/3KRU7y2LevlDNYtWKSFC.png,,image,21,Services_en
31,about-en.mission_title,Mission Title,The mission of Kazseeds is to improve farm productivity in Kazakhstan. We envision a Kazakhstan that is self-sufficient in food production and an agricultural exporter to our growing neighbors.,,text_area,22,About_en
32,about-en.mission_text,Mission  Text,"<p><span style=""color: #1e2329; font-family: AvenirNextCyr; font-size: 18px; background-color: #f9f9f9;"">We started a seed company because we believe that high quality seeds are one important part to improving productivity. Seed development takes time: it takes generations. Working with a group that values history and time to provide proven genetics is important. We source proven nonGMO genetics from a partner company in the United States with similar values. We then test those genetics for performance in Kazakhstan. In our first year, our products dramatically increased the feed efficiency for a local beef operation. Since then we have expanded to more regions throughout Kazakhstan, and are in the process of increasing our range of products.</span></p>",,rich_text_box,23,About_en
